objid	container	server_template_crc	cell_index	px	py	pz	qw	qx	qy	qz	scripts	objvars
i	i	h	i	f	f	f	f	f	f	f	s	p
978354	0	object/tangible/camp/campfire_logs_burnt.iff	0	1336.13	364.445	1126.92	1	0	0	0	theme_park.dungeon.generic_spawner	spawn_table|4|datatables/spawning/poi_spawner/dathomir/dath_sing_mtn_outcast_camp.iff|$|
978355	0	object/static/particle/pt_lair_evil_fire_large_green.iff	0	1336.07	364.418	1126.95	1	0	0	0		$|
978356	0	object/static/structure/general/streetlamp_small_green_style_01.iff	0	1335.78	363.865	1126.61	1	0	0	0		$|
9725797	0	object/static/structure/general/streetlamp_small_green_style_01.iff	0	1336.64	361.148	1136.17	1	0	0	0		$|
