spawns	name	room	loc_x	loc_y	loc_z	yaw	script	mood	animation_mood	respawn_time	spawn_objvar	special_room	special_room_script	room_objvar	room_objvar_name	room_objvar_value
s	s	s	f	f	f	f	s	s	s	i	s	s	s	s	s	s
object/mobile/ep3/cyborg_engineer_corellia.iff		blueroom	26.8	7.3	0.2	-89	conversation.cyborg_install_corellia									
